<?xml version="1.0" encoding="UTF-8"?>

<svg xmlns="http://www.w3.org/2000/svg" viewBox="0 85.333 512 341.333">
<rect y="85.331" fill="#D80027" width="512" height="341.337"/>
<rect y="85.331" width="512" height="113.775"/>
<rect y="312.882" fill="#FFDA44" width="512" height="113.775"/>
</svg>